<?xml version="1.0" encoding="UTF-8" standalone="no"?>
<!DOCTYPE svg PUBLIC "-//W3C//DTD SVG 1.1//EN" "http://www.w3.org/Graphics/SVG/1.1/DTD/svg11.dtd">
<svg version="1.1" id="Layer_1" xmlns="http://www.w3.org/2000/svg" xmlns:xlink="http://www.w3.org/1999/xlink" x="0px" y="0px" width="24px" height="24px" viewBox="0 0 24 24" enable-background="new 0 0 24 24" xml:space="preserve">  <image id="image0" width="24" height="24" x="0" y="0"
    href="data:image/png;base64,iVBORw0KGgoAAAANSUhEUgAAABgAAAAYCAMAAADXqc3KAAAABGdBTUEAALGPC/xhBQAAACBjSFJN
AAB6JgAAgIQAAPoAAACA6AAAdTAAAOpgAAA6mAAAF3CculE8AAAAZlBMVEVHcEyQyfmPx/eTy/mP
y/iUzPmUzflDoEdCn0ZDn0dDoUZDoEdDoEdDoEdDoUhEoEeQy/ldroJCoEZDoEeQyvmk1Pu54PvL
6fzh9f54vcJWqnNGok9ns5pDoEf///9HolBWq3N5vcMwHBVOAAAAFHRSTlMAdyDiIuLgv02FTL7y
8b1LiMaD81te3J8AAAABYktHRB5yCiArAAAAB3RJTUUH4wcVFRsewDcvUwAAAHJJREFUKM/V0jcS
gCAQQFFUjJgzYrz/JUUcRFa09xcU+xiGYhH6ylLZGtRXjYPN0HYuNkOvyR000aDvPAOc/QjowJgf
PGGcRCEEyofzzI8IwCCBAFj4+GiK3yABsMqnUgCbhExArirO75bPjYlIVaX8/g4f4R5YHbjGUgAA
ACV0RVh0ZGF0ZTpjcmVhdGUAMjAxOS0wNy0yMlQwNDoyNzozMC0wNzowMHK4N4kAAAAldEVYdGRh
dGU6bW9kaWZ5ADIwMTktMDctMjJUMDQ6Mjc6MzAtMDc6MDAD5Y81AAAAAElFTkSuQmCC" />
</svg>
